%YAML 1.1
%TAG !u! tag:unity3d.com,2011:
--- !u!114 &11400000
MonoBehaviour:
  m_ObjectHideFlags: 0
  m_PrefabParentObject: {fileID: 0}
  m_PrefabInternal: {fileID: 0}
  m_GameObject: {fileID: 0}
  m_Enabled: 1
  m_EditorHideFlags: 0
  m_Script: {fileID: 11500000, guid: 3dc227ec10de8db468cfddb5dbffb626, type: 3}
  m_Name: cider
  m_EditorClassIdentifier: 
  _recipe:
  - i: {fileID: 11400000, guid: fd311515720dcb04ca55557c45f51e3a, type: 2}
    q: 400
  glass: {fileID: 114000010625162550, guid: 2062e5442dd846d4c9fca9affc5d4da0, type: 2}
  sprite: {fileID: 21300000, guid: 3ba8de856dc93db438b9f82592055b6b, type: 3}
  completionFlightpath: {fileID: 11400000, guid: 64a70503ce6d988468077a1289461a5f,
    type: 2}
  value: 0
  isOrdered: 0
