%YAML 1.1
%TAG !u! tag:unity3d.com,2011:
--- !u!114 &11400000
MonoBehaviour:
  m_ObjectHideFlags: 0
  m_PrefabParentObject: {fileID: 0}
  m_PrefabInternal: {fileID: 0}
  m_GameObject: {fileID: 0}
  m_Enabled: 1
  m_EditorHideFlags: 0
  m_Script: {fileID: 11500000, guid: 6bff6e4d8f6b23f45b8b1e6b03101e15, type: 3}
  m_Name: level group
  m_EditorClassIdentifier: 
  levels:
  - {fileID: 11400000, guid: adc2d5bf786a56c41a666b30f745f748, type: 2}
  - {fileID: 11400000, guid: a1aa5a3e5fc155746b021bafd46e8931, type: 2}
  - {fileID: 11400000, guid: c73f025fea905554fb5641a839f88955, type: 2}
  - {fileID: 11400000, guid: 8bea0b79ae9dc5948993863afed09d03, type: 2}
