%YAML 1.1
%TAG !u! tag:unity3d.com,2011:
--- !u!114 &11400000
MonoBehaviour:
  m_ObjectHideFlags: 0
  m_PrefabParentObject: {fileID: 0}
  m_PrefabInternal: {fileID: 0}
  m_GameObject: {fileID: 0}
  m_Enabled: 1
  m_EditorHideFlags: 0
  m_Script: {fileID: 11500000, guid: 48b41e657fca92248a036eb5243a79ad, type: 3}
  m_Name: level 4
  m_EditorClassIdentifier: 
  drinks:
  - d: {fileID: 11400000, guid: c4bd104f90267804095efba9af57f712, type: 2}
    p: 1
  - d: {fileID: 11400000, guid: 24292d4d803586943b02a593ba020ea8, type: 2}
    p: 1
  - d: {fileID: 11400000, guid: b33fc182f7561844683b5e433eb1dcb2, type: 2}
    p: 1
  - d: {fileID: 11400000, guid: 2c6cedeaf1325a04d993cd87a773f86b, type: 2}
    p: 1
