%YAML 1.1
%TAG !u! tag:unity3d.com,2011:
--- !u!114 &11400000
MonoBehaviour:
  m_ObjectHideFlags: 0
  m_PrefabParentObject: {fileID: 0}
  m_PrefabInternal: {fileID: 0}
  m_GameObject: {fileID: 0}
  m_Enabled: 1
  m_EditorHideFlags: 0
  m_Script: {fileID: 11500000, guid: 4ba63ec5cf0aef545b1ac1f9d960f939, type: 3}
  m_Name: lager
  m_EditorClassIdentifier: 
  color: {r: 0.909804, g: 0.5254902, b: 0.18823531, a: 1}
  material: {fileID: 2100000, guid: 610ef9316459b564a8b9e52423e2ad9d, type: 2}
