%YAML 1.1
%TAG !u! tag:unity3d.com,2011:
--- !u!114 &11400000
MonoBehaviour:
  m_ObjectHideFlags: 0
  m_PrefabParentObject: {fileID: 0}
  m_PrefabInternal: {fileID: 0}
  m_GameObject: {fileID: 0}
  m_Enabled: 1
  m_EditorHideFlags: 0
  m_Script: {fileID: 11500000, guid: 4ba63ec5cf0aef545b1ac1f9d960f939, type: 3}
  m_Name: stout
  m_EditorClassIdentifier: 
  color: {r: 0.19117647, g: 0.19117647, b: 0.19117647, a: 1}
  material: {fileID: 2100000, guid: 15f08b9a1f1bfa442b9470555603b74c, type: 2}
